<svg width="1920" height="700" viewBox="0 0 1920 700" fill="none" xmlns="http://www.w3.org/2000/svg">
<g clip-path="url(#clip0_20_772)">
<rect width="1920" height="700" fill="#F8F8F8"/>
<g opacity="0.4" filter="url(#filter0_f_20_772)">
<circle cx="259" cy="724.058" r="313" fill="#EB892F"/>
</g>
<g opacity="0.3" filter="url(#filter1_f_20_772)">
<circle cx="1867.5" cy="669.558" r="299.5" fill="#009ECE"/>
</g>
<g opacity="0.2" filter="url(#filter2_f_20_772)">
<circle cx="1027" cy="120.058" r="250" fill="#343F94"/>
</g>
</g>
<defs>
<filter id="filter0_f_20_772" x="-454" y="11.0584" width="1426" height="1426" filterUnits="userSpaceOnUse" color-interpolation-filters="sRGB">
<feFlood flood-opacity="0" result="BackgroundImageFix"/>
<feBlend mode="normal" in="SourceGraphic" in2="BackgroundImageFix" result="shape"/>
<feGaussianBlur stdDeviation="200" result="effect1_foregroundBlur_20_772"/>
</filter>
<filter id="filter1_f_20_772" x="1168" y="-29.9416" width="1399" height="1399" filterUnits="userSpaceOnUse" color-interpolation-filters="sRGB">
<feFlood flood-opacity="0" result="BackgroundImageFix"/>
<feBlend mode="normal" in="SourceGraphic" in2="BackgroundImageFix" result="shape"/>
<feGaussianBlur stdDeviation="200" result="effect1_foregroundBlur_20_772"/>
</filter>
<filter id="filter2_f_20_772" x="377" y="-529.942" width="1300" height="1300" filterUnits="userSpaceOnUse" color-interpolation-filters="sRGB">
<feFlood flood-opacity="0" result="BackgroundImageFix"/>
<feBlend mode="normal" in="SourceGraphic" in2="BackgroundImageFix" result="shape"/>
<feGaussianBlur stdDeviation="200" result="effect1_foregroundBlur_20_772"/>
</filter>
<clipPath id="clip0_20_772">
<rect width="1920" height="700" fill="white"/>
</clipPath>
</defs>
</svg>
